{
  "$schema": "https://json-schema.org/draft/2020-12/schema",
  "$id": "https://vijoni.de/update-customer.json",
  "type": "object",
  "required": ["data"],
  "additionalProperties": false,
  "$error": {
    "required" : {
      "data": "REQUIRED_FIELD::data"
    }
  },
  "properties": {
    "data": {
      "type": "object",
      "required": ["id"],
      "$error": {
        "required" : {
          "id": "REQUIRED_FIELD::id"
        },
        "type": "MUST_BE_A_OBJECT::data"
      },
      "properties" : {
        "id": {
          "type": "string",
          "$error" : {
            "type": "MUST_BE_A_STRING::id"
          }
        },
        "firstname": {
          "type": "string",
          "minLength": 1,
          "maxLength": 128,
          "pattern": "[^\\/\\!?#$<>*()\\[\\]+{},;:%]+",
          "$error" : {
            "type": "MUST_BE_A_STRING::firstname",
            "minLength": "TOO_SHORT::firstname",
            "maxLength": "TOO_LONG::firstname",
            "pattern": "PATTERN_MISMATCH::firstname"
          }
        },
        "lastname": {
          "type": "string",
          "minLength": 1,
          "maxLength": 128,
          "pattern": "[^\\/\\!?#$<>*()\\[\\]+{},;:%]+",
          "$error" : {
            "type": "MUST_BE_A_STRING::lastname",
            "minLength": "TOO_SHORT::lastname",
            "maxLength": "TOO_LONG::lastname",
            "pattern": "PATTERN_MISMATCH::lastname"
          }
        },
        "email": {
          "type": "string",
          "maxLength": 256,
          "format": "email",
          "$error" : {
            "type": "MUST_BE_A_STRING::email",
            "maxLength": "TOO_LONG::email",
            "format": "INVALID_EMAIL::email"
          }
        },
        "birthDate": {
          "type": "string",
          "format": "date",
          "$error" : {
            "type": "MUST_BE_A_STRING::birthDate",
            "format": "INVALID_DATE_FORMAT::birthDate"
          }
        }
      }
    }
  }
}
