{
  "$schema": "https://json-schema.org/draft/2020-12/schema",
  "$id": "https://vijoni.de/remove-from-cart.json",
  "type": "object",
  "required": ["data"],
  "additionalProperties": false,
  "$error": {
    "required" : {
      "data": "REQUIRED_FIELD::data"
    }
  },
  "properties": {
    "data": {
      "type": "object",
      "required": ["productId"],
      "$error": {
        "required" : {
          "productId": "REQUIRED_FIELD::productId"
        },
        "type": "MUST_BE_A_OBJECT::data"
      },
      "properties" : {
        "productId": {
          "type": "string",
          "$error" : {
            "type": "MUST_BE_A_STRING::productId"
          }
        }
      }
    }
  }
}
