{
  "$schema": "https://json-schema.org/draft/2020-12/schema",
  "$id": "https://vijoni.de/checkout.json",
  "type": "object",
  "required": ["data"],
  "additionalProperties": false,
  "$error": {
    "required" : {
      "data": "REQUIRED_FIELD::data"
    }
  },
  "properties": {
    "data": {
      "type": "object",
      "required": ["orderItems"],
      "$error": {
        "required" : {
          "orderItems": "REQUIRED_FIELD::orderItems",
          "countryCode": "REQUIRED_FIELD::countryCode",
          "locale": "REQUIRED_FIELD::locale"
        },
        "type": "MUST_BE_A_OBJECT::data"
      },
      "additionalProperties": false,
      "properties": {
        "countryCode": {
          "type": "string"
        },
        "locale": {
          "type": "string"
        },
        "orderItems": {
          "type": "array",
          "prefixItems": [
            {
              "type": "object",
              "required": ["productId", "price", "count"],
              "additionalProperties": false,
              "$error": {
                "required" : {
                  "productId": "REQUIRED_FIELD::productId",
                  "price": "REQUIRED_FIELD::price",
                  "count": "REQUIRED_FIELD::count"
                },
                "type": "MUST_BE_A_OBJECT::data"
              },
              "properties" : {
                "productId": {
                  "type": "string",
                  "format": "uuid",
                  "$error" : {
                    "type": "MUST_BE_A_STRING::productId",
                    "format": "MUST_MATCH_UUID_FORMAT::productId"
                  }
                },
                "price": {
                  "type": "integer",
                  "minimum": 0,
                  "$error" : {
                    "type": "MUST_BE_AN_INTEGER::price",
                    "minimum": "BELOW_MINIMUM::price"
                  }
                },
                "count": {
                  "type": "integer",
                  "minimum": 1,
                  "$error" : {
                    "type": "MUST_BE_AN_INTEGER::count",
                    "minimum": "BELOW_MINIMUM::count"
                  }
                }
              }
            }
          ]
        }
      }
    }
  }
}
