{
  "$schema": "https://json-schema.org/draft/2020-12/schema",
  "$id": "https://vijoni.de/create-customer.json",
  "type": "object",
  "$error": {
    "required" : {
      "firstname": "REQUIRED_FIELD::firstname",
      "email": "REQUIRED_FIELD::email"
    }
  },
  "properties": {
    "firstname": {
      "type": "string",
      "minLength": 5,
      "maxLength": 128,
      "$error" : {
        "type": "MUST_BE_A_STRING::firstname",
        "minLength": "TOO_SHORT::firstname",
        "maxLength": "TOO_LONG::firstname"
      }
    },
    "email": {
      "type": "string",
      "format": "email",
      "maxLength": 256,
      "$error" : {
        "type": "MUST_BE_A_STRING::email",
        "maxLength": "TOO_LONG::email"
      }
    }
  },
  "required": ["firstname", "email"],
  "additionalProperties": false
}
